{
    "key": "group_5f14672d931e7",
    "title": "Template > Page",
    "fields": [
        {
            "key": "field_5f1582a9d37d5",
            "label": "",
            "name": "template_page",
            "type": "group",
            "instructions": "",
            "required": 0,
            "conditional_logic": 0,
            "wrapper": {
                "width": "",
                "class": "",
                "id": ""
            },
            "layout": "block",
            "sub_fields": [
                {
                    "key": "field_5f1589db233a3",
                    "label": "Clone",
                    "name": "clone",
                    "type": "clone",
                    "instructions": "",
                    "required": 0,
                    "conditional_logic": 0,
                    "wrapper": {
                        "width": "",
                        "class": "",
                        "id": ""
                    },
                    "clone": [
                        "group_5d0cc369d3ec3"
                    ],
                    "display": "seamless",
                    "layout": "block",
                    "prefix_label": 0,
                    "prefix_name": 0
                }
            ]
        }
    ],
    "location": [
        [
            {
                "param": "page_template",
                "operator": "==",
                "value": "default"
            },
            {
                "param": "page_template",
                "operator": "!=",
                "value": "default"
            },
            {
                "param": "page_template",
                "operator": "!=",
                "value": "default"
            },
            {
                "param": "page_template",
                "operator": "!=",
                "value": "default"
            },
            {
                "param": "page_template",
                "operator": "!=",
                "value": "default"
            },
            {
                "param": "page_type",
                "operator": "!=",
                "value": "front_page"
            },
            {
                "param": "page_type",
                "operator": "!=",
                "value": "posts_page"
            }
        ]
    ],
    "menu_order": 5,
    "position": "normal",
    "style": "default",
    "label_placement": "top",
    "instruction_placement": "label",
    "hide_on_screen": "",
    "active": true,
    "description": "",
    "modified": 1601627813
}