{
    "key": "group_5b9f96c01459b",
    "title": "Partial > Image ( gallery )",
    "fields": [
        {
            "key": "field_5b9f96d33bfc2",
            "label": "Gallery",
            "name": "gallery",
            "type": "gallery",
            "instructions": "",
            "required": 0,
            "conditional_logic": 0,
            "wrapper": {
                "width": "",
                "class": "",
                "id": ""
            },
            "return_format": "array",
            "preview_size": "medium",
            "insert": "append",
            "library": "all",
            "min": "",
            "max": "",
            "min_width": "",
            "min_height": "",
            "min_size": "",
            "max_width": 1920,
            "max_height": "",
            "max_size": "",
            "mime_types": ""
        },
        {
            "key": "field_601d5cd1472df",
            "label": "Grid",
            "name": "grid_gallery",
            "type": "select",
            "instructions": "",
            "required": 0,
            "conditional_logic": 0,
            "wrapper": {
                "width": "",
                "class": "",
                "id": ""
            },
            "choices": {
                "grid-6": "6 per rij",
                "grid-5": "5 per rij",
                "grid-4": "4 per rij",
                "grid-3": "3 per rij",
                "grid-2": "2 per rij"
            },
            "default_value": "grid-4",
            "allow_null": 0,
            "multiple": 0,
            "ui": 0,
            "return_format": "value",
            "ajax": 0,
            "placeholder": ""
        }
    ],
    "location": [
        [
            {
                "param": "post_type",
                "operator": "==",
                "value": "post"
            }
        ]
    ],
    "menu_order": 30,
    "position": "normal",
    "style": "default",
    "label_placement": "top",
    "instruction_placement": "label",
    "hide_on_screen": "",
    "active": false,
    "description": "acf\/partials\/gallery",
    "modified": 1612537069
}