{
    "key": "group_5f143b8f2d51b",
    "title": "Partial > Pagelinks",
    "fields": [
        {
            "key": "field_5f143b8f3dbe5",
            "label": "",
            "name": "pagelinks_repeater",
            "type": "repeater",
            "instructions": "",
            "required": 0,
            "conditional_logic": 0,
            "wrapper": {
                "width": "",
                "class": "",
                "id": ""
            },
            "collapsed": "",
            "min": 0,
            "max": 0,
            "layout": "block",
            "button_label": "+ Nieuwe link toevoegen",
            "sub_fields": [
                {
                    "key": "field_5f143b8f4746c",
                    "label": "Type",
                    "name": "pagelinks_link_type",
                    "type": "true_false",
                    "instructions": "",
                    "required": 0,
                    "conditional_logic": 0,
                    "wrapper": {
                        "width": "30",
                        "class": "",
                        "id": ""
                    },
                    "message": "",
                    "default_value": 0,
                    "ui": 1,
                    "ui_on_text": "Archive",
                    "ui_off_text": "Page"
                },
                {
                    "key": "field_5f143b8f46c8b",
                    "label": "Page link",
                    "name": "pagelinks_post_object",
                    "type": "post_object",
                    "instructions": "",
                    "required": 0,
                    "conditional_logic": [
                        [
                            {
                                "field": "field_5f143b8f4746c",
                                "operator": "!=",
                                "value": "1"
                            }
                        ]
                    ],
                    "wrapper": {
                        "width": "40",
                        "class": "",
                        "id": ""
                    },
                    "post_type": [
                        "page"
                    ],
                    "taxonomy": "",
                    "allow_null": 0,
                    "multiple": 0,
                    "return_format": "object",
                    "ui": 1
                },
                {
                    "key": "field_5f143b8f470aa",
                    "label": "Archive link",
                    "name": "pagelinks_post_type",
                    "type": "select",
                    "instructions": "",
                    "required": 0,
                    "conditional_logic": [
                        [
                            {
                                "field": "field_5f143b8f4746c",
                                "operator": "==",
                                "value": "1"
                            }
                        ]
                    ],
                    "wrapper": {
                        "width": "40",
                        "class": "",
                        "id": ""
                    },
                    "choices": {
                        "post": "Post"
                    },
                    "default_value": "post",
                    "allow_null": 0,
                    "multiple": 0,
                    "ui": 1,
                    "ajax": 0,
                    "return_format": "value",
                    "placeholder": ""
                },
                {
                    "key": "field_5f143b8f4784b",
                    "label": "Link tekst",
                    "name": "pagelinks_link_text",
                    "type": "text",
                    "instructions": "",
                    "required": 0,
                    "conditional_logic": 0,
                    "wrapper": {
                        "width": "30",
                        "class": "",
                        "id": ""
                    },
                    "default_value": "",
                    "placeholder": "",
                    "prepend": "",
                    "append": "",
                    "maxlength": ""
                },
                {
                    "key": "field_5f143b8f47c39",
                    "label": "Titel",
                    "name": "enable_pagelinks_title",
                    "type": "true_false",
                    "instructions": "",
                    "required": 0,
                    "conditional_logic": [
                        [
                            {
                                "field": "field_5f143b8f4746c",
                                "operator": "!=",
                                "value": "1"
                            }
                        ]
                    ],
                    "wrapper": {
                        "width": "30",
                        "class": "",
                        "id": ""
                    },
                    "message": "",
                    "default_value": 0,
                    "ui": 1,
                    "ui_on_text": "Custom",
                    "ui_off_text": "Auto"
                },
                {
                    "key": "field_5f143b8f4801e",
                    "label": "Status:",
                    "name": "",
                    "type": "message",
                    "instructions": "",
                    "required": 0,
                    "conditional_logic": [
                        [
                            {
                                "field": "field_5f143b8f47c39",
                                "operator": "!=",
                                "value": "1"
                            },
                            {
                                "field": "field_5f143b8f4746c",
                                "operator": "!=",
                                "value": "1"
                            }
                        ]
                    ],
                    "wrapper": {
                        "width": "70",
                        "class": "",
                        "id": ""
                    },
                    "message": "Huidige pagina titel",
                    "new_lines": "wpautop",
                    "esc_html": 0
                },
                {
                    "key": "field_5f143b8f48407",
                    "label": "Nieuwe titel",
                    "name": "pagelinks_custom_title",
                    "type": "text",
                    "instructions": "",
                    "required": 0,
                    "conditional_logic": [
                        [
                            {
                                "field": "field_5f143b8f47c39",
                                "operator": "==",
                                "value": "1"
                            },
                            {
                                "field": "field_5f143b8f4746c",
                                "operator": "!=",
                                "value": "1"
                            }
                        ]
                    ],
                    "wrapper": {
                        "width": "70",
                        "class": "",
                        "id": ""
                    },
                    "default_value": "",
                    "placeholder": "",
                    "prepend": "",
                    "append": "",
                    "maxlength": ""
                },
                {
                    "key": "field_5f143b8f487eb",
                    "label": "Beschrijving",
                    "name": "enable_pagelinks_descr",
                    "type": "true_false",
                    "instructions": "",
                    "required": 0,
                    "conditional_logic": [
                        [
                            {
                                "field": "field_5d6fc4c864ae4",
                                "operator": "==",
                                "value": "1"
                            },
                            {
                                "field": "field_5f143b8f4746c",
                                "operator": "!=",
                                "value": "1"
                            }
                        ]
                    ],
                    "wrapper": {
                        "width": "30",
                        "class": "",
                        "id": ""
                    },
                    "message": "",
                    "default_value": 0,
                    "ui": 1,
                    "ui_on_text": "Custom",
                    "ui_off_text": "Auto"
                },
                {
                    "key": "field_5f143b8f48bd7",
                    "label": "Status:",
                    "name": "",
                    "type": "message",
                    "instructions": "",
                    "required": 0,
                    "conditional_logic": [
                        [
                            {
                                "field": "field_5d6fc4c864ae4",
                                "operator": "==",
                                "value": "1"
                            },
                            {
                                "field": "field_5f143b8f487eb",
                                "operator": "!=",
                                "value": "1"
                            },
                            {
                                "field": "field_5f143b8f4746c",
                                "operator": "!=",
                                "value": "1"
                            }
                        ]
                    ],
                    "wrapper": {
                        "width": "70",
                        "class": "",
                        "id": ""
                    },
                    "message": "Huidige pagina snippet",
                    "new_lines": "wpautop",
                    "esc_html": 0
                },
                {
                    "key": "field_5f143b8f48fbf",
                    "label": "Nieuwe beschrijving",
                    "name": "pagelinks_custom_descr",
                    "type": "textarea",
                    "instructions": "",
                    "required": 0,
                    "conditional_logic": [
                        [
                            {
                                "field": "field_5f143b8f4746c",
                                "operator": "!=",
                                "value": "1"
                            },
                            {
                                "field": "field_5f143b8f487eb",
                                "operator": "==",
                                "value": "1"
                            }
                        ]
                    ],
                    "wrapper": {
                        "width": "70",
                        "class": "",
                        "id": ""
                    },
                    "default_value": "",
                    "placeholder": "",
                    "maxlength": "",
                    "rows": 2,
                    "new_lines": ""
                },
                {
                    "key": "field_5f143b8f493a2",
                    "label": "Titel",
                    "name": "pagelinks_title_archive",
                    "type": "text",
                    "instructions": "",
                    "required": 0,
                    "conditional_logic": [
                        [
                            {
                                "field": "field_5f143b8f4746c",
                                "operator": "==",
                                "value": "1"
                            }
                        ]
                    ],
                    "wrapper": {
                        "width": "30",
                        "class": "",
                        "id": ""
                    },
                    "default_value": "",
                    "placeholder": "",
                    "prepend": "",
                    "append": "",
                    "maxlength": ""
                },
                {
                    "key": "field_5f143b8f49796",
                    "label": "Beschrijving",
                    "name": "pagelinks_descr_archive",
                    "type": "textarea",
                    "instructions": "",
                    "required": 0,
                    "conditional_logic": [
                        [
                            {
                                "field": "field_5f143b8f4746c",
                                "operator": "==",
                                "value": "1"
                            }
                        ]
                    ],
                    "wrapper": {
                        "width": "40",
                        "class": "",
                        "id": ""
                    },
                    "default_value": "",
                    "placeholder": "",
                    "maxlength": "",
                    "rows": 3,
                    "new_lines": ""
                },
                {
                    "key": "field_5f143b8f49b7a",
                    "label": "Afbeelding",
                    "name": "pagelinks_image_archive",
                    "type": "image",
                    "instructions": "",
                    "required": 0,
                    "conditional_logic": [
                        [
                            {
                                "field": "field_5f143b8f4746c",
                                "operator": "==",
                                "value": "1"
                            }
                        ]
                    ],
                    "wrapper": {
                        "width": "30",
                        "class": "",
                        "id": ""
                    },
                    "return_format": "id",
                    "preview_size": "thumbnail",
                    "library": "all",
                    "min_width": "",
                    "min_height": "",
                    "min_size": "",
                    "max_width": "",
                    "max_height": "",
                    "max_size": "",
                    "mime_types": ""
                }
            ]
        }
    ],
    "location": [
        [
            {
                "param": "page_template",
                "operator": "==",
                "value": "default"
            }
        ]
    ],
    "menu_order": 30,
    "position": "normal",
    "style": "default",
    "label_placement": "top",
    "instruction_placement": "label",
    "hide_on_screen": "",
    "active": false,
    "description": "acf\/partials\/pagelinks",
    "modified": 1613994216
}