{
    "key": "group_5cb995607ea03",
    "title": "Option > Landing - options",
    "fields": [
        {
            "key": "field_603136f7f8c99",
            "label": "Landing page setup",
            "name": "",
            "type": "tab",
            "instructions": "",
            "required": 0,
            "conditional_logic": 0,
            "wrapper": {
                "width": "",
                "class": "",
                "id": ""
            },
            "placement": "left",
            "endpoint": 0
        },
        {
            "key": "field_5dd67c0d8d6e0",
            "label": "Landing page setup",
            "name": "",
            "type": "message",
            "instructions": "",
            "required": 0,
            "conditional_logic": 0,
            "wrapper": {
                "width": "100",
                "class": "",
                "id": ""
            },
            "message": "Toont verwante pagina's (children) in een 'groep' onder een hoofdpagina (parent). \r\n\r\nSpecificeer hier de 'parent' pagina. Subpages worden gesorteerd op \"menu order\".",
            "new_lines": "wpautop",
            "esc_html": 0
        },
        {
            "key": "field_5cda9235f21d8",
            "label": "Select parent",
            "name": "landing_parent_id",
            "type": "post_object",
            "instructions": "Selecteer pagina (hoofd) om child-pages te tonen.",
            "required": 0,
            "conditional_logic": 0,
            "wrapper": {
                "width": "33.3333",
                "class": "",
                "id": ""
            },
            "post_type": [
                "page"
            ],
            "taxonomy": "",
            "allow_null": 0,
            "multiple": 0,
            "return_format": "id",
            "ui": 1
        },
        {
            "key": "field_5dd69c39e073f",
            "label": "Titel",
            "name": "landing_siblings_title",
            "type": "text",
            "instructions": "De titel van de 'landing page' previews",
            "required": 0,
            "conditional_logic": 0,
            "wrapper": {
                "width": "33.3333",
                "class": "",
                "id": ""
            },
            "default_value": "Gerelateerd:",
            "placeholder": "",
            "prepend": "",
            "append": "",
            "maxlength": ""
        },
        {
            "key": "field_5dd67cbf8d6e2",
            "label": "Icon \/ Preview",
            "name": "landing_preview_type",
            "type": "true_false",
            "instructions": "Weergave van de preview.",
            "required": 0,
            "conditional_logic": 0,
            "wrapper": {
                "width": "33.3333",
                "class": "",
                "id": ""
            },
            "message": "",
            "default_value": 0,
            "ui": 1,
            "ui_on_text": "Icon",
            "ui_off_text": "Preview"
        }
    ],
    "location": [
        [
            {
                "param": "options_page",
                "operator": "==",
                "value": "acf-options-setup-landing"
            }
        ]
    ],
    "menu_order": 50,
    "position": "normal",
    "style": "default",
    "label_placement": "top",
    "instruction_placement": "label",
    "hide_on_screen": "",
    "active": true,
    "description": "",
    "modified": 1613906618
}