{
    "key": "group_5f15ae26b85ae",
    "title": "Flex > Home",
    "fields": [
        {
            "key": "field_5fe0c25e75659",
            "label": "Header",
            "name": "page_intro_group",
            "type": "group",
            "instructions": "",
            "required": 0,
            "conditional_logic": 0,
            "wrapper": {
                "width": "",
                "class": "",
                "id": ""
            },
            "layout": "block",
            "sub_fields": [
                {
                    "key": "field_5fe0c2937565b",
                    "label": "clone",
                    "name": "clone",
                    "type": "clone",
                    "instructions": "",
                    "required": 0,
                    "conditional_logic": 0,
                    "wrapper": {
                        "width": "",
                        "class": "",
                        "id": ""
                    },
                    "clone": [
                        "group_5f7700aae503d"
                    ],
                    "display": "seamless",
                    "layout": "block",
                    "prefix_label": 0,
                    "prefix_name": 0
                }
            ]
        },
        {
            "key": "field_5f15ae34b58e6",
            "label": "Flexibel",
            "name": "flex_content_home",
            "type": "flexible_content",
            "instructions": "",
            "required": 0,
            "conditional_logic": 0,
            "wrapper": {
                "width": "",
                "class": "",
                "id": ""
            },
            "layouts": {
                "layout_5f9165fc280a1": {
                    "key": "layout_5f9165fc280a1",
                    "name": "text_image",
                    "label": "2-col > Text & Image",
                    "display": "block",
                    "sub_fields": [
                        {
                            "key": "field_5f91666b8f391",
                            "label": "Clone",
                            "name": "clone",
                            "type": "clone",
                            "instructions": "",
                            "required": 0,
                            "conditional_logic": 0,
                            "wrapper": {
                                "width": "",
                                "class": "",
                                "id": ""
                            },
                            "clone": [
                                "group_5f088cda4bbf9"
                            ],
                            "display": "seamless",
                            "layout": "block",
                            "prefix_label": 0,
                            "prefix_name": 0
                        }
                    ],
                    "min": "",
                    "max": ""
                },
                "layout_5fe4977533b1f": {
                    "key": "layout_5fe4977533b1f",
                    "name": "text_text",
                    "label": "2-col > Text & Text",
                    "display": "block",
                    "sub_fields": [
                        {
                            "key": "field_5fe497b533b20",
                            "label": "clone",
                            "name": "clone",
                            "type": "clone",
                            "instructions": "",
                            "required": 0,
                            "conditional_logic": 0,
                            "wrapper": {
                                "width": "",
                                "class": "",
                                "id": ""
                            },
                            "clone": [
                                "group_5f08831a932a6"
                            ],
                            "display": "seamless",
                            "layout": "block",
                            "prefix_label": 0,
                            "prefix_name": 0
                        }
                    ],
                    "min": "",
                    "max": ""
                },
                "layout_60213586904c3": {
                    "key": "layout_60213586904c3",
                    "name": "text_text_text",
                    "label": "3-col > Text & Text & Text",
                    "display": "block",
                    "sub_fields": [
                        {
                            "key": "field_602135b3904c4",
                            "label": "Clone",
                            "name": "clone",
                            "type": "clone",
                            "instructions": "",
                            "required": 0,
                            "conditional_logic": 0,
                            "wrapper": {
                                "width": "",
                                "class": "",
                                "id": ""
                            },
                            "clone": [
                                "group_60019a19b6ea1"
                            ],
                            "display": "seamless",
                            "layout": "block",
                            "prefix_label": 0,
                            "prefix_name": 0
                        }
                    ],
                    "min": "",
                    "max": ""
                },
                "layout_5f91669b8f393": {
                    "key": "layout_5f91669b8f393",
                    "name": "text_image_slider",
                    "label": "2-col > Text & Slider",
                    "display": "block",
                    "sub_fields": [
                        {
                            "key": "field_5f9166b28f394",
                            "label": "Clone",
                            "name": "clone",
                            "type": "clone",
                            "instructions": "",
                            "required": 0,
                            "conditional_logic": 0,
                            "wrapper": {
                                "width": "",
                                "class": "",
                                "id": ""
                            },
                            "clone": [
                                "group_5f0b0e81748e3"
                            ],
                            "display": "seamless",
                            "layout": "block",
                            "prefix_label": 0,
                            "prefix_name": 0
                        }
                    ],
                    "min": "",
                    "max": ""
                },
                "layout_5fe4988084967": {
                    "key": "layout_5fe4988084967",
                    "name": "text_form",
                    "label": "2-col > Text & Form",
                    "display": "block",
                    "sub_fields": [
                        {
                            "key": "field_5fe4992b84968",
                            "label": "clone",
                            "name": "clone",
                            "type": "clone",
                            "instructions": "",
                            "required": 0,
                            "conditional_logic": 0,
                            "wrapper": {
                                "width": "",
                                "class": "",
                                "id": ""
                            },
                            "clone": [
                                "group_5fe498bc1f515"
                            ],
                            "display": "seamless",
                            "layout": "block",
                            "prefix_label": 0,
                            "prefix_name": 0
                        }
                    ],
                    "min": "",
                    "max": ""
                },
                "layout_5f15ae3ed32cc": {
                    "key": "layout_5f15ae3ed32cc",
                    "name": "landing_pages",
                    "label": "1-col > Landing previews",
                    "display": "block",
                    "sub_fields": [
                        {
                            "key": "field_5f15ae60b58e7",
                            "label": "Clone",
                            "name": "clone",
                            "type": "clone",
                            "instructions": "",
                            "required": 0,
                            "conditional_logic": 0,
                            "wrapper": {
                                "width": "",
                                "class": "",
                                "id": ""
                            },
                            "clone": [
                                "group_5f15ae7a15aad"
                            ],
                            "display": "seamless",
                            "layout": "block",
                            "prefix_label": 0,
                            "prefix_name": 0
                        }
                    ],
                    "min": "",
                    "max": ""
                },
                "layout_60212a0575964": {
                    "key": "layout_60212a0575964",
                    "name": "collapse",
                    "label": "1-col > Collapse list",
                    "display": "block",
                    "sub_fields": [
                        {
                            "key": "field_60212a1175965",
                            "label": "clone",
                            "name": "clone",
                            "type": "clone",
                            "instructions": "",
                            "required": 0,
                            "conditional_logic": 0,
                            "wrapper": {
                                "width": "",
                                "class": "",
                                "id": ""
                            },
                            "clone": [
                                "group_5f15771f6c489"
                            ],
                            "display": "seamless",
                            "layout": "block",
                            "prefix_label": 0,
                            "prefix_name": 0
                        }
                    ],
                    "min": "",
                    "max": ""
                },
                "layout_5fe497fc4e49b": {
                    "key": "layout_5fe497fc4e49b",
                    "name": "form",
                    "label": "1-col > Form",
                    "display": "block",
                    "sub_fields": [
                        {
                            "key": "field_5fe498094e49c",
                            "label": "clone",
                            "name": "clone",
                            "type": "clone",
                            "instructions": "",
                            "required": 0,
                            "conditional_logic": 0,
                            "wrapper": {
                                "width": "",
                                "class": "",
                                "id": ""
                            },
                            "clone": [
                                "group_5f1580869f2d2"
                            ],
                            "display": "seamless",
                            "layout": "block",
                            "prefix_label": 0,
                            "prefix_name": 0
                        }
                    ],
                    "min": "",
                    "max": ""
                },
                "layout_5f9166cd8f395": {
                    "key": "layout_5f9166cd8f395",
                    "name": "link_pages",
                    "label": "1-col > Page links",
                    "display": "block",
                    "sub_fields": [
                        {
                            "key": "field_5f9166e38f396",
                            "label": "Clone",
                            "name": "clone",
                            "type": "clone",
                            "instructions": "",
                            "required": 0,
                            "conditional_logic": 0,
                            "wrapper": {
                                "width": "",
                                "class": "",
                                "id": ""
                            },
                            "clone": [
                                "group_5d6fabb935124"
                            ],
                            "display": "seamless",
                            "layout": "block",
                            "prefix_label": 0,
                            "prefix_name": 0
                        }
                    ],
                    "min": "",
                    "max": ""
                },
                "layout_601eb7e0ede95": {
                    "key": "layout_601eb7e0ede95",
                    "name": "link_posts",
                    "label": "1-col > Post links",
                    "display": "block",
                    "sub_fields": [
                        {
                            "key": "field_601eb7f4ede96",
                            "label": "Clone",
                            "name": "clone",
                            "type": "clone",
                            "instructions": "",
                            "required": 0,
                            "conditional_logic": 0,
                            "wrapper": {
                                "width": "",
                                "class": "",
                                "id": ""
                            },
                            "clone": [
                                "group_5f144e174f531"
                            ],
                            "display": "seamless",
                            "layout": "block",
                            "prefix_label": 0,
                            "prefix_name": 0
                        }
                    ],
                    "min": "",
                    "max": ""
                }
            },
            "button_label": "+ Nieuwe sectie toevoegen",
            "min": "",
            "max": ""
        }
    ],
    "location": [
        [
            {
                "param": "page_template",
                "operator": "==",
                "value": "default"
            },
            {
                "param": "page_type",
                "operator": "==",
                "value": "front_page"
            }
        ]
    ],
    "menu_order": 0,
    "position": "normal",
    "style": "default",
    "label_placement": "top",
    "instruction_placement": "label",
    "hide_on_screen": [
        "the_content"
    ],
    "active": true,
    "description": "acf\/flex-home",
    "modified": 1613991966
}