{
    "key": "group_5f1451d459925",
    "title": "Flex > Post",
    "fields": [
        {
            "key": "field_5f1451d468f36",
            "label": "Flex content",
            "name": "flex_content_post",
            "type": "flexible_content",
            "instructions": "",
            "required": 0,
            "conditional_logic": 0,
            "wrapper": {
                "width": "100",
                "class": "",
                "id": ""
            },
            "layouts": {
                "layout_5f0883c0d82b9": {
                    "key": "layout_5f0883c0d82b9",
                    "name": "text",
                    "label": "Text",
                    "display": "block",
                    "sub_fields": [
                        {
                            "key": "field_5f1451d46b26a",
                            "label": "Clone",
                            "name": "clone",
                            "type": "clone",
                            "instructions": "",
                            "required": 0,
                            "conditional_logic": 0,
                            "wrapper": {
                                "width": "",
                                "class": "",
                                "id": ""
                            },
                            "clone": [
                                "group_5f08831a932a6"
                            ],
                            "display": "seamless",
                            "layout": "block",
                            "prefix_label": 0,
                            "prefix_name": 0
                        }
                    ],
                    "min": "",
                    "max": ""
                },
                "layout_5f088d4da1802": {
                    "key": "layout_5f088d4da1802",
                    "name": "text_image",
                    "label": "Text & Image",
                    "display": "block",
                    "sub_fields": [
                        {
                            "key": "field_5f1451d46b64c",
                            "label": "Clone",
                            "name": "clone",
                            "type": "clone",
                            "instructions": "",
                            "required": 0,
                            "conditional_logic": 0,
                            "wrapper": {
                                "width": "",
                                "class": "",
                                "id": ""
                            },
                            "clone": [
                                "group_5f088cda4bbf9"
                            ],
                            "display": "seamless",
                            "layout": "block",
                            "prefix_label": 0,
                            "prefix_name": 0
                        }
                    ],
                    "min": "",
                    "max": ""
                },
                "layout_5f0aff8b679f3": {
                    "key": "layout_5f0aff8b679f3",
                    "name": "text_image_slider",
                    "label": "Text & Image slider",
                    "display": "block",
                    "sub_fields": [
                        {
                            "key": "field_5f1451d46ba39",
                            "label": "Clone",
                            "name": "clone",
                            "type": "clone",
                            "instructions": "",
                            "required": 0,
                            "conditional_logic": 0,
                            "wrapper": {
                                "width": "",
                                "class": "",
                                "id": ""
                            },
                            "clone": [
                                "group_5f0b0e81748e3"
                            ],
                            "display": "seamless",
                            "layout": "block",
                            "prefix_label": 0,
                            "prefix_name": 0
                        }
                    ],
                    "min": "",
                    "max": ""
                },
                "layout_5f0b206f5aece": {
                    "key": "layout_5f0b206f5aece",
                    "name": "text_gallery",
                    "label": "Text & Image gallery",
                    "display": "block",
                    "sub_fields": [
                        {
                            "key": "field_5f1451d46be24",
                            "label": "Clone",
                            "name": "clone",
                            "type": "clone",
                            "instructions": "",
                            "required": 0,
                            "conditional_logic": 0,
                            "wrapper": {
                                "width": "",
                                "class": "",
                                "id": ""
                            },
                            "clone": [
                                "group_5f0b203b4a4af"
                            ],
                            "display": "seamless",
                            "layout": "block",
                            "prefix_label": 0,
                            "prefix_name": 0
                        }
                    ],
                    "min": "",
                    "max": ""
                },
                "layout_5f083cf2698a0": {
                    "key": "layout_5f083cf2698a0",
                    "name": "image_gallery",
                    "label": "Image gallery",
                    "display": "block",
                    "sub_fields": [
                        {
                            "key": "field_5f1451d46c20a",
                            "label": "Clone",
                            "name": "clone",
                            "type": "clone",
                            "instructions": "",
                            "required": 0,
                            "conditional_logic": 0,
                            "wrapper": {
                                "width": "",
                                "class": "",
                                "id": ""
                            },
                            "clone": [
                                "group_5b9f96c01459b"
                            ],
                            "display": "seamless",
                            "layout": "block",
                            "prefix_label": 0,
                            "prefix_name": 0
                        }
                    ],
                    "min": "",
                    "max": ""
                },
                "layout_5f0af2aa1f9c2": {
                    "key": "layout_5f0af2aa1f9c2",
                    "name": "collapse",
                    "label": "Collapse list",
                    "display": "block",
                    "sub_fields": [
                        {
                            "key": "field_5f1451d46c9da",
                            "label": "Clone",
                            "name": "clone",
                            "type": "clone",
                            "instructions": "",
                            "required": 0,
                            "conditional_logic": 0,
                            "wrapper": {
                                "width": "",
                                "class": "",
                                "id": ""
                            },
                            "clone": [
                                "group_5c962376bfa3c"
                            ],
                            "display": "seamless",
                            "layout": "block",
                            "prefix_label": 0,
                            "prefix_name": 0
                        }
                    ],
                    "min": "",
                    "max": ""
                }
            },
            "button_label": "+ Nieuwe sectie toevoegen",
            "min": "",
            "max": ""
        }
    ],
    "location": [
        [
            {
                "param": "post_type",
                "operator": "==",
                "value": "post"
            }
        ]
    ],
    "menu_order": 0,
    "position": "normal",
    "style": "default",
    "label_placement": "top",
    "instruction_placement": "label",
    "hide_on_screen": "",
    "active": true,
    "description": "acf\/flex-post",
    "modified": 1613908152
}