{
    "key": "group_601d6dc16c24d",
    "title": "Partial > List style",
    "fields": [
        {
            "key": "field_600a9306a3271",
            "label": "List style",
            "name": "list_style",
            "type": "select",
            "instructions": "",
            "required": 0,
            "conditional_logic": 0,
            "wrapper": {
                "width": "25",
                "class": "",
                "id": ""
            },
            "choices": {
                "default": "Default",
                "theme": "Thema blok",
                "theme-alt": "Thema vlakken"
            },
            "default_value": "default",
            "allow_null": 0,
            "multiple": 0,
            "ui": 0,
            "return_format": "value",
            "ajax": 0,
            "placeholder": ""
        }
    ],
    "location": [
        [
            {
                "param": "post_type",
                "operator": "==",
                "value": "post"
            }
        ]
    ],
    "menu_order": 30,
    "position": "normal",
    "style": "default",
    "label_placement": "top",
    "instruction_placement": "label",
    "hide_on_screen": "",
    "active": true,
    "description": "inc\/template-tags\/tags--style-list",
    "modified": 1612789457
}