{
    "key": "group_5d628d81b0368",
    "title": "Option > Header - controls",
    "fields": [
        {
            "key": "field_5d1611df6e7ab",
            "label": "Contact links",
            "name": "enable_header_links",
            "type": "true_false",
            "instructions": "Extra top balk in menu",
            "required": 0,
            "conditional_logic": 0,
            "wrapper": {
                "width": "33.3333",
                "class": "",
                "id": ""
            },
            "message": "",
            "default_value": 0,
            "ui": 1,
            "ui_on_text": "",
            "ui_off_text": ""
        },
        {
            "key": "field_5d161403bedfd",
            "label": "Selecteer",
            "name": "contact_types",
            "type": "checkbox",
            "instructions": "Contact details instellen in: Humanify->Setup - Contact",
            "required": 0,
            "conditional_logic": [
                [
                    {
                        "field": "field_5d1611df6e7ab",
                        "operator": "==",
                        "value": "1"
                    }
                ]
            ],
            "wrapper": {
                "width": "66.6666",
                "class": "",
                "id": ""
            },
            "choices": {
                "email": "E-mail",
                "phone": "Telefoon"
            },
            "allow_custom": 0,
            "default_value": [],
            "layout": "horizontal",
            "toggle": 1,
            "return_format": "value",
            "save_custom": 0
        },
        {
            "key": "field_6034ffda85885",
            "label": "",
            "name": "",
            "type": "message",
            "instructions": "",
            "required": 0,
            "conditional_logic": [
                [
                    {
                        "field": "field_5d1611df6e7ab",
                        "operator": "!=",
                        "value": "1"
                    }
                ]
            ],
            "wrapper": {
                "width": "66.6666",
                "class": "",
                "id": ""
            },
            "message": "",
            "new_lines": "wpautop",
            "esc_html": 0
        },
        {
            "key": "field_5f008d68b9e52",
            "label": "Branding tekst bij logo",
            "name": "enable_branding_text",
            "type": "true_false",
            "instructions": "Tekst invoeren in customizer.",
            "required": 0,
            "conditional_logic": 0,
            "wrapper": {
                "width": "33.3333",
                "class": "",
                "id": ""
            },
            "message": "",
            "default_value": 0,
            "ui": 1,
            "ui_on_text": "",
            "ui_off_text": ""
        },
        {
            "key": "field_5d161153507e6",
            "label": "Taal selectie",
            "name": "enable_language_select",
            "type": "true_false",
            "instructions": "Voor meertalige sites",
            "required": 0,
            "conditional_logic": 0,
            "wrapper": {
                "width": "33.3333",
                "class": "",
                "id": ""
            },
            "message": "",
            "default_value": 1,
            "ui": 1,
            "ui_on_text": "",
            "ui_off_text": ""
        }
    ],
    "location": [
        [
            {
                "param": "options_page",
                "operator": "==",
                "value": "acf-options-setup-header"
            }
        ]
    ],
    "menu_order": 50,
    "position": "normal",
    "style": "default",
    "label_placement": "top",
    "instruction_placement": "label",
    "hide_on_screen": "",
    "active": true,
    "description": "",
    "modified": 1614086132
}