{
    "key": "group_5f15dd00dda28",
    "title": "Partial > Header images",
    "fields": [
        {
            "key": "field_5f15dd2642e88",
            "label": "",
            "name": "header_img_repeater",
            "type": "repeater",
            "instructions": "",
            "required": 0,
            "conditional_logic": 0,
            "wrapper": {
                "width": "",
                "class": "",
                "id": ""
            },
            "collapsed": "field_5f15dd3442e89",
            "min": 0,
            "max": 0,
            "layout": "block",
            "button_label": "+ Nieuwe afbeelding",
            "sub_fields": [
                {
                    "key": "field_5f15dd3442e89",
                    "label": "Afbeelding",
                    "name": "header_img_id",
                    "type": "image",
                    "instructions": "",
                    "required": 0,
                    "conditional_logic": 0,
                    "wrapper": {
                        "width": "",
                        "class": "",
                        "id": ""
                    },
                    "return_format": "id",
                    "preview_size": "thumbnail",
                    "library": "all",
                    "min_width": "",
                    "min_height": "",
                    "min_size": "",
                    "max_width": "",
                    "max_height": "",
                    "max_size": "",
                    "mime_types": "jpg, jpeg, png"
                }
            ]
        }
    ],
    "location": [
        [
            {
                "param": "post_template",
                "operator": "==",
                "value": "default"
            },
            {
                "param": "page_type",
                "operator": "==",
                "value": "front_page"
            }
        ]
    ],
    "menu_order": 30,
    "position": "side",
    "style": "default",
    "label_placement": "top",
    "instruction_placement": "label",
    "hide_on_screen": "",
    "active": false,
    "description": "",
    "modified": 1613908932
}