{
    "key": "group_5d7cf890e4325",
    "title": "Partial > Link ( external )",
    "fields": [
        {
            "key": "field_5d7cf8910206c",
            "label": "External URL",
            "name": "link_ext_arr",
            "type": "link",
            "instructions": "Voeg URL toe naar externe website",
            "required": 0,
            "conditional_logic": 0,
            "wrapper": {
                "width": "",
                "class": "",
                "id": ""
            },
            "return_format": "array"
        },
        {
            "key": "field_6001558c89380",
            "label": "Link type",
            "name": "link_type",
            "type": "select",
            "instructions": "",
            "required": 0,
            "conditional_logic": 0,
            "wrapper": {
                "width": "",
                "class": "",
                "id": ""
            },
            "choices": {
                "btn block__btn button": "Primary Pink",
                "btn block__btn button--alt": "Secondary Green",
                "btn block__btn button--wired": "Wired Primary",
                "btn block__btn button--wired--alt": "Wired Secondary",
                "btn block__btn button--w": "White",
                "btn block__link": "Default link"
            },
            "default_value": "link",
            "allow_null": 0,
            "multiple": 0,
            "ui": 0,
            "return_format": "value",
            "ajax": 0,
            "placeholder": ""
        }
    ],
    "location": [
        [
            {
                "param": "post_type",
                "operator": "==",
                "value": "post"
            }
        ]
    ],
    "menu_order": 30,
    "position": "acf_after_title",
    "style": "seamless",
    "label_placement": "top",
    "instruction_placement": "label",
    "hide_on_screen": "",
    "active": false,
    "description": "acf\/partials\/link__external",
    "modified": 1610700192
}