{
    "key": "group_5b9aabcfe37cd",
    "title": "Option > Post meta",
    "fields": [
        {
            "key": "field_6031348418a8f",
            "label": "Meta",
            "name": "",
            "type": "tab",
            "instructions": "",
            "required": 0,
            "conditional_logic": 0,
            "wrapper": {
                "width": "",
                "class": "",
                "id": ""
            },
            "placement": "left",
            "endpoint": 0
        },
        {
            "key": "field_6031352cdc981",
            "label": "Meta informatie",
            "name": "",
            "type": "message",
            "instructions": "",
            "required": 0,
            "conditional_logic": 0,
            "wrapper": {
                "width": "",
                "class": "",
                "id": ""
            },
            "message": "Selecteer welke meta informatie van de post getoond wordt.",
            "new_lines": "wpautop",
            "esc_html": 0
        },
        {
            "key": "field_602fba8f8bac6",
            "label": "Post meta - top",
            "name": "post_meta_top",
            "type": "flexible_content",
            "instructions": "",
            "required": 0,
            "conditional_logic": 0,
            "wrapper": {
                "width": "50",
                "class": "",
                "id": ""
            },
            "layouts": {
                "layout_602fbaae4b80c": {
                    "key": "layout_602fbaae4b80c",
                    "name": "meta_tax",
                    "label": "Taxonomie",
                    "display": "block",
                    "sub_fields": [
                        {
                            "key": "field_602fd2578aaaf",
                            "label": "clone",
                            "name": "clone",
                            "type": "clone",
                            "instructions": "",
                            "required": 0,
                            "conditional_logic": 0,
                            "wrapper": {
                                "width": "",
                                "class": "",
                                "id": ""
                            },
                            "clone": [
                                "group_602fd01a3cae3"
                            ],
                            "display": "seamless",
                            "layout": "block",
                            "prefix_label": 0,
                            "prefix_name": 0
                        }
                    ],
                    "min": "",
                    "max": ""
                },
                "layout_602fbf528baca": {
                    "key": "layout_602fbf528baca",
                    "name": "meta_date",
                    "label": "Datum",
                    "display": "block",
                    "sub_fields": [
                        {
                            "key": "field_602fc088fb075",
                            "label": "",
                            "name": "enable_pub_update",
                            "type": "true_false",
                            "instructions": "",
                            "required": 0,
                            "conditional_logic": 0,
                            "wrapper": {
                                "width": "",
                                "class": "",
                                "id": ""
                            },
                            "message": "Toon laatste update",
                            "default_value": 0,
                            "ui": 1,
                            "ui_on_text": "",
                            "ui_off_text": ""
                        }
                    ],
                    "min": "",
                    "max": ""
                },
                "layout_602fbf708bacc": {
                    "key": "layout_602fbf708bacc",
                    "name": "meta_author",
                    "label": "Auteur",
                    "display": "block",
                    "sub_fields": [
                        {
                            "key": "field_602fe9e8b014e",
                            "label": "",
                            "name": "enable_author_icon",
                            "type": "true_false",
                            "instructions": "",
                            "required": 0,
                            "conditional_logic": 0,
                            "wrapper": {
                                "width": "",
                                "class": "",
                                "id": ""
                            },
                            "message": "Toon profile picture",
                            "default_value": 0,
                            "ui": 1,
                            "ui_on_text": "",
                            "ui_off_text": ""
                        }
                    ],
                    "min": "",
                    "max": ""
                }
            },
            "button_label": "+ Rij toevoegen",
            "min": "",
            "max": ""
        },
        {
            "key": "field_602fd23d8aaac",
            "label": "Post meta - bottom",
            "name": "post_meta_bot",
            "type": "flexible_content",
            "instructions": "",
            "required": 0,
            "conditional_logic": 0,
            "wrapper": {
                "width": "50",
                "class": "",
                "id": ""
            },
            "layouts": {
                "layout_602fbaae4b80c": {
                    "key": "layout_602fbaae4b80c",
                    "name": "meta_tax",
                    "label": "Taxonomie",
                    "display": "block",
                    "sub_fields": [
                        {
                            "key": "field_602fd2e626f15",
                            "label": "clone",
                            "name": "clone",
                            "type": "clone",
                            "instructions": "",
                            "required": 0,
                            "conditional_logic": 0,
                            "wrapper": {
                                "width": "",
                                "class": "",
                                "id": ""
                            },
                            "clone": [
                                "group_602fd01a3cae3"
                            ],
                            "display": "seamless",
                            "layout": "block",
                            "prefix_label": 0,
                            "prefix_name": 0
                        }
                    ],
                    "min": "",
                    "max": ""
                },
                "layout_602fbf528baca": {
                    "key": "layout_602fbf528baca",
                    "name": "meta_date",
                    "label": "Datum",
                    "display": "block",
                    "sub_fields": [
                        {
                            "key": "field_602fd23d8aaae",
                            "label": "",
                            "name": "enable_pub_update",
                            "type": "true_false",
                            "instructions": "",
                            "required": 0,
                            "conditional_logic": 0,
                            "wrapper": {
                                "width": "",
                                "class": "",
                                "id": ""
                            },
                            "message": "Toon laatste update",
                            "default_value": 0,
                            "ui": 1,
                            "ui_on_text": "",
                            "ui_off_text": ""
                        }
                    ],
                    "min": "",
                    "max": ""
                },
                "layout_602fbf708bacc": {
                    "key": "layout_602fbf708bacc",
                    "name": "meta_author",
                    "label": "Auteur",
                    "display": "block",
                    "sub_fields": [
                        {
                            "key": "field_602fd5703b759",
                            "label": "",
                            "name": "enable_author_block",
                            "type": "true_false",
                            "instructions": "",
                            "required": 0,
                            "conditional_logic": 0,
                            "wrapper": {
                                "width": "",
                                "class": "",
                                "id": ""
                            },
                            "message": "Auteur bio met profile picture",
                            "default_value": 0,
                            "ui": 1,
                            "ui_on_text": "",
                            "ui_off_text": ""
                        }
                    ],
                    "min": "",
                    "max": ""
                }
            },
            "button_label": "+ Rij toevoegen",
            "min": "",
            "max": ""
        },
        {
            "key": "field_603134b718a91",
            "label": "Meta buttons",
            "name": "",
            "type": "tab",
            "instructions": "",
            "required": 0,
            "conditional_logic": 0,
            "wrapper": {
                "width": "",
                "class": "",
                "id": ""
            },
            "placement": "top",
            "endpoint": 0
        },
        {
            "key": "field_603135739f459",
            "label": "Meta buttons",
            "name": "",
            "type": "message",
            "instructions": "",
            "required": 0,
            "conditional_logic": 0,
            "wrapper": {
                "width": "",
                "class": "",
                "id": ""
            },
            "message": "Selecteer hoe de links voor de taxonomie labels er uit zien.",
            "new_lines": "wpautop",
            "esc_html": 0
        },
        {
            "key": "field_60311f78a5088",
            "label": "Categorie link",
            "name": "cat_link_select",
            "type": "select",
            "instructions": "",
            "required": 0,
            "conditional_logic": 0,
            "wrapper": {
                "width": "33.3333",
                "class": "",
                "id": ""
            },
            "choices": {
                "button": "Primary button",
                "button--alt": "Secondary button",
                "button--wired": "Wired Primary button",
                "button--wired-alt": "Wired Secondary button",
                "button--w": "White button",
                "block__link": "Default link"
            },
            "default_value": false,
            "allow_null": 0,
            "multiple": 0,
            "ui": 0,
            "return_format": "value",
            "ajax": 0,
            "placeholder": ""
        },
        {
            "key": "field_6031208ba5089",
            "label": "Tag link",
            "name": "tag_link_select",
            "type": "select",
            "instructions": "",
            "required": 0,
            "conditional_logic": 0,
            "wrapper": {
                "width": "33.3333",
                "class": "",
                "id": ""
            },
            "choices": {
                "button": "Primary button",
                "button--alt": "Secondary button",
                "button--wired": "Wired Primary button",
                "button--wired-alt": "Wired Secondary button",
                "button--w": "White button",
                "block__link": "Default link"
            },
            "default_value": false,
            "allow_null": 0,
            "multiple": 0,
            "ui": 0,
            "return_format": "value",
            "ajax": 0,
            "placeholder": ""
        }
    ],
    "location": [
        [
            {
                "param": "options_page",
                "operator": "==",
                "value": "acf-options-setup-blog-posts"
            }
        ]
    ],
    "menu_order": 50,
    "position": "normal",
    "style": "default",
    "label_placement": "top",
    "instruction_placement": "label",
    "hide_on_screen": "",
    "active": true,
    "description": "",
    "modified": 1613907970
}