{
    "key": "group_5d28aca79df2f",
    "title": "Partial > Select posts",
    "fields": [
        {
            "key": "field_5d28acb4d23c0",
            "label": "Selecteer posts",
            "name": "posts_select",
            "type": "post_object",
            "instructions": "Kies posts om te tonen ( geen selectie = geen posts )",
            "required": 0,
            "conditional_logic": 0,
            "wrapper": {
                "width": "50",
                "class": "",
                "id": ""
            },
            "post_type": [
                "post"
            ],
            "taxonomy": "",
            "allow_null": 1,
            "multiple": 1,
            "return_format": "id",
            "ui": 1
        }
    ],
    "location": [
        [
            {
                "param": "page_type",
                "operator": "==",
                "value": "front_page"
            }
        ]
    ],
    "menu_order": 30,
    "position": "acf_after_title",
    "style": "seamless",
    "label_placement": "top",
    "instruction_placement": "label",
    "hide_on_screen": "",
    "active": false,
    "description": "singles\/post\/query-posts__select",
    "modified": 1608745895
}