{
    "key": "group_5f0aea1e30f3e",
    "title": "Partial > Social links",
    "fields": [
        {
            "key": "field_5f0aea29c46e8",
            "label": "Contact links",
            "name": "",
            "type": "message",
            "instructions": "",
            "required": 0,
            "conditional_logic": 0,
            "wrapper": {
                "width": "",
                "class": "",
                "id": ""
            },
            "message": "Toon contact links zoals ingevoerd in Humanify > Contact defaults",
            "new_lines": "wpautop",
            "esc_html": 0
        },
        {
            "key": "field_5f0aea5ac46e9",
            "label": "Selecteer",
            "name": "contact_links_select",
            "type": "checkbox",
            "instructions": "",
            "required": 0,
            "conditional_logic": 0,
            "wrapper": {
                "width": "",
                "class": "",
                "id": ""
            },
            "choices": {
                "email": "E-mail",
                "phone": "Telefoon",
                "linkedin": "Linkedin",
                "facebook": "Facebook",
                "twitter": "Twitter",
                "instagram": "Instagram"
            },
            "allow_custom": 0,
            "default_value": [],
            "layout": "horizontal",
            "toggle": 1,
            "return_format": "value",
            "save_custom": 0
        }
    ],
    "location": [
        [
            {
                "param": "post_type",
                "operator": "==",
                "value": "post"
            }
        ]
    ],
    "menu_order": 30,
    "position": "normal",
    "style": "default",
    "label_placement": "top",
    "instruction_placement": "label",
    "hide_on_screen": "",
    "active": 0,
    "description": "pages\/contact\/block--social-links",
    "modified": 1595071510
}