{
    "key": "group_60657ace2dbb6",
    "title": "Partial > Postlinks werkwijze",
    "fields": [
        {
            "key": "field_60671f3570381",
            "label": "Enable excerpts",
            "name": "enable_postlinks_text",
            "type": "true_false",
            "instructions": "",
            "required": 0,
            "conditional_logic": 0,
            "wrapper": {
                "width": "30",
                "class": "",
                "id": ""
            },
            "message": "",
            "default_value": 0,
            "ui": 1,
            "ui_on_text": "",
            "ui_off_text": ""
        },
        {
            "key": "field_60657ace4996c",
            "label": "",
            "name": "postlinks_repeater",
            "type": "repeater",
            "instructions": "",
            "required": 0,
            "conditional_logic": 0,
            "wrapper": {
                "width": "",
                "class": "",
                "id": ""
            },
            "collapsed": "",
            "min": 0,
            "max": 0,
            "layout": "block",
            "button_label": "Nieuwe link",
            "sub_fields": [
                {
                    "key": "field_60657ace54c57",
                    "label": "Post link",
                    "name": "postlinks_post_object",
                    "type": "post_object",
                    "instructions": "",
                    "required": 0,
                    "conditional_logic": 0,
                    "wrapper": {
                        "width": "26",
                        "class": "",
                        "id": ""
                    },
                    "post_type": [
                        "werkwijze"
                    ],
                    "taxonomy": "",
                    "allow_null": 0,
                    "multiple": 0,
                    "return_format": "object",
                    "ui": 1
                },
                {
                    "key": "field_60659a3244e88",
                    "label": "Link titel",
                    "name": "postlinks_linktext",
                    "type": "text",
                    "instructions": "",
                    "required": 0,
                    "conditional_logic": 0,
                    "wrapper": {
                        "width": "50",
                        "class": "",
                        "id": ""
                    },
                    "default_value": "",
                    "placeholder": "",
                    "prepend": "",
                    "append": "",
                    "maxlength": ""
                },
                {
                    "key": "field_60657ace5c0ed",
                    "label": "Titel",
                    "name": "enable_postlinks_title",
                    "type": "true_false",
                    "instructions": "",
                    "required": 0,
                    "conditional_logic": 0,
                    "wrapper": {
                        "width": "26",
                        "class": "",
                        "id": ""
                    },
                    "message": "",
                    "default_value": 0,
                    "ui": 1,
                    "ui_on_text": "Custom",
                    "ui_off_text": "Auto"
                },
                {
                    "key": "field_60657ace5fa0d",
                    "label": "Status:",
                    "name": "",
                    "type": "message",
                    "instructions": "",
                    "required": 0,
                    "conditional_logic": [
                        [
                            {
                                "field": "field_60657ace5c0ed",
                                "operator": "!=",
                                "value": "1"
                            }
                        ]
                    ],
                    "wrapper": {
                        "width": "74",
                        "class": "",
                        "id": ""
                    },
                    "message": "Huidige pagina titel",
                    "new_lines": "wpautop",
                    "esc_html": 0
                },
                {
                    "key": "field_60657ace63386",
                    "label": "Nieuwe titel",
                    "name": "postlinks_custom_title",
                    "type": "text",
                    "instructions": "",
                    "required": 0,
                    "conditional_logic": [
                        [
                            {
                                "field": "field_60657ace5c0ed",
                                "operator": "==",
                                "value": "1"
                            }
                        ]
                    ],
                    "wrapper": {
                        "width": "50",
                        "class": "",
                        "id": ""
                    },
                    "default_value": "",
                    "placeholder": "",
                    "prepend": "",
                    "append": "",
                    "maxlength": ""
                },
                {
                    "key": "field_60657ace66cc6",
                    "label": "Beschrijving",
                    "name": "enable_postlinks_descr",
                    "type": "true_false",
                    "instructions": "",
                    "required": 0,
                    "conditional_logic": [
                        [
                            {
                                "field": "field_5dcad9bf71b1d",
                                "operator": "==",
                                "value": "1"
                            }
                        ]
                    ],
                    "wrapper": {
                        "width": "26",
                        "class": "",
                        "id": ""
                    },
                    "message": "",
                    "default_value": 0,
                    "ui": 1,
                    "ui_on_text": "Custom",
                    "ui_off_text": "Auto"
                },
                {
                    "key": "field_60657ace6a765",
                    "label": "Status:",
                    "name": "",
                    "type": "message",
                    "instructions": "",
                    "required": 0,
                    "conditional_logic": [
                        [
                            {
                                "field": "field_5dcad9bf71b1d",
                                "operator": "==",
                                "value": "1"
                            },
                            {
                                "field": "field_60657ace66cc6",
                                "operator": "!=",
                                "value": "1"
                            }
                        ]
                    ],
                    "wrapper": {
                        "width": "74",
                        "class": "",
                        "id": ""
                    },
                    "message": "Huidige pagina snippet",
                    "new_lines": "wpautop",
                    "esc_html": 0
                },
                {
                    "key": "field_60657ace6e0c6",
                    "label": "Nieuwe beschrijving",
                    "name": "postlinks_custom_descr",
                    "type": "textarea",
                    "instructions": "",
                    "required": 0,
                    "conditional_logic": [
                        [
                            {
                                "field": "field_5dcad9bf71b1d",
                                "operator": "==",
                                "value": "1"
                            },
                            {
                                "field": "field_60657ace66cc6",
                                "operator": "==",
                                "value": "1"
                            }
                        ]
                    ],
                    "wrapper": {
                        "width": "50",
                        "class": "",
                        "id": ""
                    },
                    "default_value": "",
                    "placeholder": "",
                    "maxlength": "",
                    "rows": 3,
                    "new_lines": ""
                }
            ]
        }
    ],
    "location": [
        [
            {
                "param": "post_type",
                "operator": "==",
                "value": "post"
            }
        ]
    ],
    "menu_order": 30,
    "position": "normal",
    "style": "default",
    "label_placement": "top",
    "instruction_placement": "label",
    "hide_on_screen": "",
    "active": false,
    "description": "acf\/partials\/postlinks",
    "modified": 1617901040
}