{
    "key": "group_600191ffd2cff",
    "title": "Flex > About",
    "fields": [
        {
            "key": "field_600191ffe29e4",
            "label": "Page header",
            "name": "grp_header_page",
            "type": "group",
            "instructions": "",
            "required": 0,
            "conditional_logic": 0,
            "wrapper": {
                "width": "",
                "class": "",
                "id": ""
            },
            "layout": "block",
            "sub_fields": [
                {
                    "key": "field_600191ffe847d",
                    "label": "Header tekst",
                    "name": "",
                    "type": "tab",
                    "instructions": "",
                    "required": 0,
                    "conditional_logic": 0,
                    "wrapper": {
                        "width": "",
                        "class": "",
                        "id": ""
                    },
                    "placement": "left",
                    "endpoint": 0
                },
                {
                    "key": "field_600191ffe84d2",
                    "label": "clone",
                    "name": "clone",
                    "type": "clone",
                    "instructions": "",
                    "required": 0,
                    "conditional_logic": 0,
                    "wrapper": {
                        "width": "",
                        "class": "",
                        "id": ""
                    },
                    "clone": [
                        "group_5f087a5128e8a"
                    ],
                    "display": "seamless",
                    "layout": "block",
                    "prefix_label": 0,
                    "prefix_name": 0
                }
            ]
        },
        {
            "key": "field_600191ffe2a28",
            "label": "Flex content",
            "name": "flex_content_about",
            "type": "flexible_content",
            "instructions": "",
            "required": 0,
            "conditional_logic": 0,
            "wrapper": {
                "width": "100",
                "class": "",
                "id": ""
            },
            "layouts": {
                "layout_5f0883c0d82b9": {
                    "key": "layout_5f0883c0d82b9",
                    "name": "text",
                    "label": "1-col > Text",
                    "display": "block",
                    "sub_fields": [
                        {
                            "key": "field_6001920007d62",
                            "label": "Clone",
                            "name": "clone",
                            "type": "clone",
                            "instructions": "",
                            "required": 0,
                            "conditional_logic": 0,
                            "wrapper": {
                                "width": "",
                                "class": "",
                                "id": ""
                            },
                            "clone": [
                                "group_5f76d8415ffac"
                            ],
                            "display": "seamless",
                            "layout": "block",
                            "prefix_label": 0,
                            "prefix_name": 0
                        }
                    ],
                    "min": "",
                    "max": ""
                },
                "layout_5f76ffa357351": {
                    "key": "layout_5f76ffa357351",
                    "name": "text_text",
                    "label": "2-col > Text & Text",
                    "display": "block",
                    "sub_fields": [
                        {
                            "key": "field_6001920007de1",
                            "label": "Clone",
                            "name": "clone",
                            "type": "clone",
                            "instructions": "",
                            "required": 0,
                            "conditional_logic": 0,
                            "wrapper": {
                                "width": "",
                                "class": "",
                                "id": ""
                            },
                            "clone": [
                                "group_5f08831a932a6"
                            ],
                            "display": "seamless",
                            "layout": "block",
                            "prefix_label": 0,
                            "prefix_name": 0
                        }
                    ],
                    "min": "",
                    "max": ""
                },
                "layout_5f088d4da1802": {
                    "key": "layout_5f088d4da1802",
                    "name": "text_image",
                    "label": "2-col > Text & Image",
                    "display": "block",
                    "sub_fields": [
                        {
                            "key": "field_6001920007e2b",
                            "label": "Clone",
                            "name": "clone",
                            "type": "clone",
                            "instructions": "",
                            "required": 0,
                            "conditional_logic": 0,
                            "wrapper": {
                                "width": "",
                                "class": "",
                                "id": ""
                            },
                            "clone": [
                                "group_5f088cda4bbf9"
                            ],
                            "display": "seamless",
                            "layout": "block",
                            "prefix_label": 0,
                            "prefix_name": 0
                        }
                    ],
                    "min": "",
                    "max": ""
                },
                "layout_5f0aff8b679f3": {
                    "key": "layout_5f0aff8b679f3",
                    "name": "text_image_slider",
                    "label": "2-col > Text & Image slider",
                    "display": "block",
                    "sub_fields": [
                        {
                            "key": "field_6001920007e72",
                            "label": "Clone",
                            "name": "clone",
                            "type": "clone",
                            "instructions": "",
                            "required": 0,
                            "conditional_logic": 0,
                            "wrapper": {
                                "width": "",
                                "class": "",
                                "id": ""
                            },
                            "clone": [
                                "group_5f0b0e81748e3"
                            ],
                            "display": "seamless",
                            "layout": "block",
                            "prefix_label": 0,
                            "prefix_name": 0
                        }
                    ],
                    "min": "",
                    "max": ""
                },
                "layout_5f0b206f5aece": {
                    "key": "layout_5f0b206f5aece",
                    "name": "text_gallery",
                    "label": "2-col > Text & Image gallery",
                    "display": "block",
                    "sub_fields": [
                        {
                            "key": "field_6001920007eb8",
                            "label": "Clone",
                            "name": "clone",
                            "type": "clone",
                            "instructions": "",
                            "required": 0,
                            "conditional_logic": 0,
                            "wrapper": {
                                "width": "",
                                "class": "",
                                "id": ""
                            },
                            "clone": [
                                "group_5f0b203b4a4af"
                            ],
                            "display": "seamless",
                            "layout": "block",
                            "prefix_label": 0,
                            "prefix_name": 0
                        }
                    ],
                    "min": "",
                    "max": ""
                },
                "layout_5f083cf2698a0": {
                    "key": "layout_5f083cf2698a0",
                    "name": "image_gallery",
                    "label": "1-col > Image gallery",
                    "display": "block",
                    "sub_fields": [
                        {
                            "key": "field_6001920007eff",
                            "label": "Clone",
                            "name": "clone",
                            "type": "clone",
                            "instructions": "",
                            "required": 0,
                            "conditional_logic": 0,
                            "wrapper": {
                                "width": "",
                                "class": "",
                                "id": ""
                            },
                            "clone": [
                                "group_5f12cd6d417bc"
                            ],
                            "display": "seamless",
                            "layout": "block",
                            "prefix_label": 0,
                            "prefix_name": 0
                        }
                    ],
                    "min": "",
                    "max": ""
                },
                "layout_5f084e099f54c": {
                    "key": "layout_5f084e099f54c",
                    "name": "form",
                    "label": "1-col > Form",
                    "display": "block",
                    "sub_fields": [
                        {
                            "key": "field_6001920007f45",
                            "label": "Clone",
                            "name": "clone",
                            "type": "clone",
                            "instructions": "",
                            "required": 0,
                            "conditional_logic": 0,
                            "wrapper": {
                                "width": "",
                                "class": "",
                                "id": ""
                            },
                            "clone": [
                                "group_5f1580869f2d2"
                            ],
                            "display": "seamless",
                            "layout": "block",
                            "prefix_label": 0,
                            "prefix_name": 0
                        }
                    ],
                    "min": "",
                    "max": ""
                },
                "layout_5f0af2aa1f9c2": {
                    "key": "layout_5f0af2aa1f9c2",
                    "name": "collapse",
                    "label": "1-col > Collapse list",
                    "display": "block",
                    "sub_fields": [
                        {
                            "key": "field_6001920007f8a",
                            "label": "Clone",
                            "name": "clone",
                            "type": "clone",
                            "instructions": "",
                            "required": 0,
                            "conditional_logic": 0,
                            "wrapper": {
                                "width": "",
                                "class": "",
                                "id": ""
                            },
                            "clone": [
                                "group_5f15771f6c489"
                            ],
                            "display": "seamless",
                            "layout": "block",
                            "prefix_label": 0,
                            "prefix_name": 0
                        }
                    ],
                    "min": "",
                    "max": ""
                },
                "layout_600199f56b0c5": {
                    "key": "layout_600199f56b0c5",
                    "name": "text_text_text",
                    "label": "3-col > Text blocks",
                    "display": "block",
                    "sub_fields": [
                        {
                            "key": "field_60019ca46b0c6",
                            "label": "clone",
                            "name": "clone",
                            "type": "clone",
                            "instructions": "",
                            "required": 0,
                            "conditional_logic": 0,
                            "wrapper": {
                                "width": "",
                                "class": "",
                                "id": ""
                            },
                            "clone": [
                                "group_60019a19b6ea1"
                            ],
                            "display": "seamless",
                            "layout": "block",
                            "prefix_label": 0,
                            "prefix_name": 0
                        }
                    ],
                    "min": "",
                    "max": ""
                }
            },
            "button_label": "+ Nieuwe sectie toevoegen",
            "min": "",
            "max": ""
        }
    ],
    "location": [
        [
            {
                "param": "page_template",
                "operator": "==",
                "value": "page-templates\/page-about.php"
            }
        ]
    ],
    "menu_order": 0,
    "position": "normal",
    "style": "default",
    "label_placement": "top",
    "instruction_placement": "label",
    "hide_on_screen": [
        "the_content"
    ],
    "active": false,
    "description": "acf\/flex-about",
    "modified": 1617198908
}