{
    "key": "group_5f15ae26b85ae",
    "title": "Flex > Home",
    "fields": [
        {
            "key": "field_605cbc8e5b8f9",
            "label": "Header",
            "name": "page_intro_group",
            "type": "group",
            "instructions": "",
            "required": 0,
            "conditional_logic": 0,
            "wrapper": {
                "width": "",
                "class": "",
                "id": ""
            },
            "layout": "block",
            "sub_fields": [
                {
                    "key": "field_605cbc8e5b8fa",
                    "label": "Tekst",
                    "name": "",
                    "type": "tab",
                    "instructions": "",
                    "required": 0,
                    "conditional_logic": 0,
                    "wrapper": {
                        "width": "",
                        "class": "",
                        "id": ""
                    },
                    "placement": "left",
                    "endpoint": 0
                },
                {
                    "key": "field_605cbc8e5b8fb",
                    "label": "clone",
                    "name": "clone",
                    "type": "clone",
                    "instructions": "",
                    "required": 0,
                    "conditional_logic": 0,
                    "wrapper": {
                        "width": "",
                        "class": "",
                        "id": ""
                    },
                    "clone": [
                        "group_5f76fe72ae503"
                    ],
                    "display": "seamless",
                    "layout": "block",
                    "prefix_label": 0,
                    "prefix_name": 0
                },
                {
                    "key": "field_605cbc8e5b8fc",
                    "label": "Link",
                    "name": "",
                    "type": "tab",
                    "instructions": "",
                    "required": 0,
                    "conditional_logic": 0,
                    "wrapper": {
                        "width": "",
                        "class": "",
                        "id": ""
                    },
                    "placement": "top",
                    "endpoint": 0
                },
                {
                    "key": "field_605cbc8e5b8fd",
                    "label": "clone",
                    "name": "clone",
                    "type": "clone",
                    "instructions": "",
                    "required": 0,
                    "conditional_logic": 0,
                    "wrapper": {
                        "width": "",
                        "class": "",
                        "id": ""
                    },
                    "clone": [
                        "group_5f09aaa228f52"
                    ],
                    "display": "seamless",
                    "layout": "block",
                    "prefix_label": 0,
                    "prefix_name": 0
                }
            ]
        },
        {
            "key": "field_5f15ae34b58e6",
            "label": "",
            "name": "flex_content_home",
            "type": "flexible_content",
            "instructions": "",
            "required": 0,
            "conditional_logic": 0,
            "wrapper": {
                "width": "",
                "class": "",
                "id": ""
            },
            "layouts": {
                "layout_5f15ae3ed32cc": {
                    "key": "layout_5f15ae3ed32cc",
                    "name": "landing_pages",
                    "label": "1-col > Landing previews",
                    "display": "block",
                    "sub_fields": [
                        {
                            "key": "field_5fd2187313bb1",
                            "label": "Achtergrond",
                            "name": "home_bg_url",
                            "type": "image",
                            "instructions": "",
                            "required": 0,
                            "conditional_logic": 0,
                            "wrapper": {
                                "width": "",
                                "class": "",
                                "id": ""
                            },
                            "return_format": "url",
                            "preview_size": "small",
                            "library": "all",
                            "min_width": "",
                            "min_height": "",
                            "min_size": "",
                            "max_width": "",
                            "max_height": "",
                            "max_size": "",
                            "mime_types": ""
                        }
                    ],
                    "min": "",
                    "max": ""
                },
                "layout_5fd1ffc169070": {
                    "key": "layout_5fd1ffc169070",
                    "name": "form",
                    "label": "1-col > Form",
                    "display": "block",
                    "sub_fields": [
                        {
                            "key": "field_5fd1ffcc69071",
                            "label": "clone",
                            "name": "clone",
                            "type": "clone",
                            "instructions": "",
                            "required": 0,
                            "conditional_logic": 0,
                            "wrapper": {
                                "width": "",
                                "class": "",
                                "id": ""
                            },
                            "clone": [
                                "group_5f1580869f2d2"
                            ],
                            "display": "seamless",
                            "layout": "block",
                            "prefix_label": 0,
                            "prefix_name": 0
                        }
                    ],
                    "min": "",
                    "max": ""
                },
                "layout_5fd219cf36ce3": {
                    "key": "layout_5fd219cf36ce3",
                    "name": "portfolio_previews",
                    "label": "1-col > Portfolio",
                    "display": "block",
                    "sub_fields": [
                        {
                            "key": "field_5fd219e336ce4",
                            "label": "",
                            "name": "",
                            "type": "message",
                            "instructions": "",
                            "required": 0,
                            "conditional_logic": 0,
                            "wrapper": {
                                "width": "",
                                "class": "",
                                "id": ""
                            },
                            "message": "Deze rij toont de portfolio cases.",
                            "new_lines": "wpautop",
                            "esc_html": 0
                        }
                    ],
                    "min": "",
                    "max": ""
                },
                "layout_5fd25b8a31ebe": {
                    "key": "layout_5fd25b8a31ebe",
                    "name": "products_uitvoering",
                    "label": "1-col > Uitvoering",
                    "display": "block",
                    "sub_fields": [
                        {
                            "key": "field_5fd25bc031ebf",
                            "label": "",
                            "name": "",
                            "type": "message",
                            "instructions": "",
                            "required": 0,
                            "conditional_logic": 0,
                            "wrapper": {
                                "width": "",
                                "class": "",
                                "id": ""
                            },
                            "message": "Deze rij toont de product uitvoering mogelijkheden.",
                            "new_lines": "wpautop",
                            "esc_html": 0
                        }
                    ],
                    "min": "",
                    "max": ""
                },
                "layout_606f2f600b6fe": {
                    "key": "layout_606f2f600b6fe",
                    "name": "link_landing",
                    "label": "1-col > Landing links",
                    "display": "block",
                    "sub_fields": [
                        {
                            "key": "field_606f2fcd0b6ff",
                            "label": "clone",
                            "name": "clone",
                            "type": "clone",
                            "instructions": "",
                            "required": 0,
                            "conditional_logic": 0,
                            "wrapper": {
                                "width": "",
                                "class": "",
                                "id": ""
                            },
                            "clone": [
                                "group_5d6fabb935124"
                            ],
                            "display": "seamless",
                            "layout": "block",
                            "prefix_label": 0,
                            "prefix_name": 0
                        }
                    ],
                    "min": "",
                    "max": ""
                },
                "layout_6065fe1da6ded": {
                    "key": "layout_6065fe1da6ded",
                    "name": "text",
                    "label": "1-col > Text",
                    "display": "block",
                    "sub_fields": [
                        {
                            "key": "field_6065fe27a6dee",
                            "label": "clone",
                            "name": "clone",
                            "type": "clone",
                            "instructions": "",
                            "required": 0,
                            "conditional_logic": 0,
                            "wrapper": {
                                "width": "",
                                "class": "",
                                "id": ""
                            },
                            "clone": [
                                "group_5f76d8415ffac"
                            ],
                            "display": "seamless",
                            "layout": "block",
                            "prefix_label": 0,
                            "prefix_name": 0
                        }
                    ],
                    "min": "",
                    "max": ""
                },
                "layout_5f9165fc280a1": {
                    "key": "layout_5f9165fc280a1",
                    "name": "text_image",
                    "label": "2-col > Text & Image",
                    "display": "block",
                    "sub_fields": [
                        {
                            "key": "field_5f91666b8f391",
                            "label": "Clone",
                            "name": "clone",
                            "type": "clone",
                            "instructions": "",
                            "required": 0,
                            "conditional_logic": 0,
                            "wrapper": {
                                "width": "",
                                "class": "",
                                "id": ""
                            },
                            "clone": [
                                "group_5f088cda4bbf9"
                            ],
                            "display": "seamless",
                            "layout": "block",
                            "prefix_label": 0,
                            "prefix_name": 0
                        }
                    ],
                    "min": "",
                    "max": ""
                },
                "layout_5f91669b8f393": {
                    "key": "layout_5f91669b8f393",
                    "name": "text_image_slider",
                    "label": "2-col > Text & Slider",
                    "display": "block",
                    "sub_fields": [
                        {
                            "key": "field_5f9166b28f394",
                            "label": "Clone",
                            "name": "clone",
                            "type": "clone",
                            "instructions": "",
                            "required": 0,
                            "conditional_logic": 0,
                            "wrapper": {
                                "width": "",
                                "class": "",
                                "id": ""
                            },
                            "clone": [
                                "group_5f0b0e81748e3"
                            ],
                            "display": "seamless",
                            "layout": "block",
                            "prefix_label": 0,
                            "prefix_name": 0
                        }
                    ],
                    "min": "",
                    "max": ""
                },
                "layout_5fd25c3331ec2": {
                    "key": "layout_5fd25c3331ec2",
                    "name": "text_list",
                    "label": "2-col > Text & List",
                    "display": "block",
                    "sub_fields": [
                        {
                            "key": "field_5fd25c0031ec1",
                            "label": "Clone",
                            "name": "clone",
                            "type": "clone",
                            "instructions": "",
                            "required": 0,
                            "conditional_logic": 0,
                            "wrapper": {
                                "width": "",
                                "class": "",
                                "id": ""
                            },
                            "clone": [
                                "group_5fca66c5458a7"
                            ],
                            "display": "seamless",
                            "layout": "block",
                            "prefix_label": 0,
                            "prefix_name": 0
                        }
                    ],
                    "min": "",
                    "max": ""
                },
                "layout_5fd21d4beb272": {
                    "key": "layout_5fd21d4beb272",
                    "name": "text_uitvoering",
                    "label": "2-col > Text & Uitvoering",
                    "display": "block",
                    "sub_fields": [
                        {
                            "key": "field_5fd21d6aeb273",
                            "label": "Clone",
                            "name": "clone",
                            "type": "clone",
                            "instructions": "",
                            "required": 0,
                            "conditional_logic": 0,
                            "wrapper": {
                                "width": "",
                                "class": "",
                                "id": ""
                            },
                            "clone": [
                                "group_5fd21c6cb87e8"
                            ],
                            "display": "seamless",
                            "layout": "block",
                            "prefix_label": 0,
                            "prefix_name": 0
                        }
                    ],
                    "min": "",
                    "max": ""
                },
                "layout_5f9166cd8f395": {
                    "key": "layout_5f9166cd8f395",
                    "name": "link_posts_two",
                    "label": "2-col > Post links",
                    "display": "block",
                    "sub_fields": [
                        {
                            "key": "field_5f9166e38f396",
                            "label": "Clone",
                            "name": "clone",
                            "type": "clone",
                            "instructions": "",
                            "required": 0,
                            "conditional_logic": 0,
                            "wrapper": {
                                "width": "",
                                "class": "",
                                "id": ""
                            },
                            "clone": [
                                "group_5fd202698c611"
                            ],
                            "display": "seamless",
                            "layout": "block",
                            "prefix_label": 0,
                            "prefix_name": 0
                        }
                    ],
                    "min": "",
                    "max": ""
                }
            },
            "button_label": "Nieuwe Sectie",
            "min": "",
            "max": ""
        }
    ],
    "location": [
        [
            {
                "param": "page_template",
                "operator": "==",
                "value": "default"
            },
            {
                "param": "page_type",
                "operator": "==",
                "value": "front_page"
            }
        ]
    ],
    "menu_order": 0,
    "position": "normal",
    "style": "default",
    "label_placement": "top",
    "instruction_placement": "label",
    "hide_on_screen": "",
    "active": true,
    "description": "",
    "modified": 1617900988
}