{
    "key": "group_5bf5548cbb789",
    "title": "Option > Posts ( blog )",
    "fields": [
        {
            "key": "field_6031320708bd4",
            "label": "Post archief",
            "name": "",
            "type": "tab",
            "instructions": "",
            "required": 0,
            "conditional_logic": 0,
            "wrapper": {
                "width": "",
                "class": "",
                "id": ""
            },
            "placement": "left",
            "endpoint": 0
        },
        {
            "key": "field_603135aab62b3",
            "label": "Post archief",
            "name": "",
            "type": "message",
            "instructions": "",
            "required": 0,
            "conditional_logic": 0,
            "wrapper": {
                "width": "",
                "class": "",
                "id": ""
            },
            "message": "Het post archief toont alle posts in een grid-layout. Hier stel je de titel, het grid en uiterlijke kenmerken in.",
            "new_lines": "wpautop",
            "esc_html": 0
        },
        {
            "key": "field_5cb99b130eefd",
            "label": "Archief titel",
            "name": "post_archive_title",
            "type": "text",
            "instructions": "",
            "required": 0,
            "conditional_logic": 0,
            "wrapper": {
                "width": "33.3333",
                "class": "",
                "id": ""
            },
            "default_value": "Alle posts",
            "placeholder": "",
            "prepend": "",
            "append": "",
            "maxlength": ""
        },
        {
            "key": "field_5dcc14bea03c1",
            "label": "Button type",
            "name": "post_links",
            "type": "select",
            "instructions": "",
            "required": 0,
            "conditional_logic": 0,
            "wrapper": {
                "width": "33.3333",
                "class": "",
                "id": ""
            },
            "choices": {
                "button": "Primary button",
                "button--alt": "Secondary button",
                "button--wired": "Wired Primary button",
                "button--wired-alt": "Wired Secondary button",
                "button--w": "White button",
                "block__link": "Default link"
            },
            "default_value": "link",
            "allow_null": 0,
            "multiple": 0,
            "ui": 1,
            "ajax": 0,
            "return_format": "value",
            "placeholder": ""
        },
        {
            "key": "field_6001575af4bb2",
            "label": "Button titel",
            "name": "post_links_title",
            "type": "text",
            "instructions": "",
            "required": 0,
            "conditional_logic": 0,
            "wrapper": {
                "width": "33.3333",
                "class": "",
                "id": ""
            },
            "default_value": "Lees meer",
            "placeholder": "",
            "prepend": "",
            "append": "",
            "maxlength": ""
        },
        {
            "key": "field_602bacd24ce89",
            "label": "Grid type 'posts'",
            "name": "grid_preview_post",
            "type": "select",
            "instructions": "",
            "required": 0,
            "conditional_logic": 0,
            "wrapper": {
                "width": "33.3333",
                "class": "",
                "id": ""
            },
            "choices": {
                "grid-4": "4 per rij",
                "grid-3": "3 per rij",
                "grid-2": "2 per rij",
                "grid-1": "1 per rij"
            },
            "default_value": false,
            "allow_null": 0,
            "multiple": 0,
            "ui": 0,
            "return_format": "value",
            "ajax": 0,
            "placeholder": ""
        },
        {
            "key": "field_6031324fe452d",
            "label": "Related posts",
            "name": "",
            "type": "tab",
            "instructions": "",
            "required": 0,
            "conditional_logic": 0,
            "wrapper": {
                "width": "",
                "class": "",
                "id": ""
            },
            "placement": "left",
            "endpoint": 0
        },
        {
            "key": "field_6031361ec5721",
            "label": "Related posts",
            "name": "",
            "type": "message",
            "instructions": "",
            "required": 0,
            "conditional_logic": 0,
            "wrapper": {
                "width": "",
                "class": "",
                "id": ""
            },
            "message": "'Related posts' toont een grid met verwante posts. Hier stel je de titel, het grid en uiterlijke kenmerken in.",
            "new_lines": "wpautop",
            "esc_html": 0
        },
        {
            "key": "field_5bf19f35d3db1",
            "label": "Titel 'related posts'",
            "name": "related_posts_title",
            "type": "text",
            "instructions": "",
            "required": 0,
            "conditional_logic": 0,
            "wrapper": {
                "width": "33.3333",
                "class": "",
                "id": ""
            },
            "default_value": "Gerelateerde posts",
            "placeholder": "",
            "prepend": "",
            "append": "",
            "maxlength": ""
        },
        {
            "key": "field_5dcc072e42512",
            "label": "Button type",
            "name": "rel_links",
            "type": "select",
            "instructions": "",
            "required": 0,
            "conditional_logic": 0,
            "wrapper": {
                "width": "33.3333",
                "class": "",
                "id": ""
            },
            "choices": {
                "button": "Primary button",
                "button--alt": "Secondary button",
                "button--wired": "Wired Primary button",
                "button--wired-alt": "Wired Secondary button",
                "button--w": "White button",
                "block__link": "Default link"
            },
            "default_value": "link",
            "allow_null": 0,
            "multiple": 0,
            "ui": 1,
            "ajax": 0,
            "return_format": "value",
            "placeholder": ""
        },
        {
            "key": "field_5ba106df2bbaa",
            "label": "Max aantal 'related posts'",
            "name": "related_posts_amount",
            "type": "range",
            "instructions": "",
            "required": 0,
            "conditional_logic": 0,
            "wrapper": {
                "width": "33.3333",
                "class": "",
                "id": ""
            },
            "default_value": "",
            "min": 0,
            "max": 15,
            "step": 3,
            "prepend": "",
            "append": ""
        },
        {
            "key": "field_6027b1caa7014",
            "label": "Grid type 'related posts'",
            "name": "grid_preview_rel",
            "type": "select",
            "instructions": "",
            "required": 0,
            "conditional_logic": 0,
            "wrapper": {
                "width": "33.3333",
                "class": "",
                "id": ""
            },
            "choices": {
                "grid-4": "4 per rij",
                "grid-3": "3 per rij",
                "grid-2": "2 per rij",
                "grid-1": "1 per rij"
            },
            "default_value": "grid-1",
            "allow_null": 0,
            "multiple": 0,
            "ui": 0,
            "return_format": "value",
            "ajax": 0,
            "placeholder": ""
        }
    ],
    "location": [
        [
            {
                "param": "options_page",
                "operator": "==",
                "value": "acf-options-setup-blog-posts"
            }
        ]
    ],
    "menu_order": 50,
    "position": "normal",
    "style": "default",
    "label_placement": "top",
    "instruction_placement": "label",
    "hide_on_screen": "",
    "active": true,
    "description": "",
    "modified": 1613906690
}