{
    "key": "group_5ba14d1b9aa3a",
    "title": "Partial > Post controls",
    "fields": [
        {
            "key": "field_5c5daff6d8794",
            "label": "Volgorde",
            "name": "acf_post_order",
            "type": "number",
            "instructions": "",
            "required": 0,
            "conditional_logic": 0,
            "wrapper": {
                "width": "25",
                "class": "",
                "id": ""
            },
            "default_value": 0,
            "placeholder": "",
            "prepend": "",
            "append": "",
            "min": 0,
            "max": 99,
            "step": 1
        },
        {
            "key": "field_607ade65a859a",
            "label": "Titel kort",
            "name": "post_title_short",
            "type": "text",
            "instructions": "",
            "required": 0,
            "conditional_logic": 0,
            "wrapper": {
                "width": "50",
                "class": "",
                "id": ""
            },
            "default_value": "",
            "placeholder": "",
            "prepend": "",
            "append": "",
            "maxlength": ""
        }
    ],
    "location": [
        [
            {
                "param": "post_type",
                "operator": "==",
                "value": "post"
            }
        ],
        [
            {
                "param": "post_type",
                "operator": "==",
                "value": "post_learn"
            }
        ],
        [
            {
                "param": "post_type",
                "operator": "==",
                "value": "post_docs"
            }
        ],
        [
            {
                "param": "post_type",
                "operator": "==",
                "value": "products"
            }
        ],
        [
            {
                "param": "post_type",
                "operator": "==",
                "value": "werkwijze"
            }
        ],
        [
            {
                "param": "page_template",
                "operator": "==",
                "value": "page-templates\/page-landing.php"
            }
        ]
    ],
    "menu_order": 30,
    "position": "acf_after_title",
    "style": "seamless",
    "label_placement": "top",
    "instruction_placement": "label",
    "hide_on_screen": "",
    "active": true,
    "description": "",
    "modified": 1618665182
}