{
    "key": "group_5ce6ab6d5d027",
    "title": "Option > Footer",
    "fields": [
        {
            "key": "field_60324c535559c",
            "label": "Footer columns",
            "name": "",
            "type": "tab",
            "instructions": "",
            "required": 0,
            "conditional_logic": 0,
            "wrapper": {
                "width": "",
                "class": "",
                "id": ""
            },
            "placement": "left",
            "endpoint": 0
        },
        {
            "key": "field_5d163c850e132",
            "label": "",
            "name": "footer_group_flex",
            "type": "flexible_content",
            "instructions": "",
            "required": 0,
            "conditional_logic": 0,
            "wrapper": {
                "width": "",
                "class": "",
                "id": ""
            },
            "layouts": {
                "layout_5d164055071a2": {
                    "key": "layout_5d164055071a2",
                    "name": "footer_list",
                    "label": "Tekst ( lijst )",
                    "display": "row",
                    "sub_fields": [
                        {
                            "key": "field_5d163f00e6122",
                            "label": "Titel",
                            "name": "footer_title",
                            "type": "text",
                            "instructions": "",
                            "required": 0,
                            "conditional_logic": 0,
                            "wrapper": {
                                "width": "",
                                "class": "",
                                "id": ""
                            },
                            "default_value": "",
                            "placeholder": "",
                            "prepend": "",
                            "append": "",
                            "maxlength": ""
                        },
                        {
                            "key": "field_5d163f0ae6123",
                            "label": "Tekst",
                            "name": "footer_text",
                            "type": "wysiwyg",
                            "instructions": "Gebruik een 'opsommingslijst' (bullet-points) voor het beste resultaat.",
                            "required": 0,
                            "conditional_logic": 0,
                            "wrapper": {
                                "width": "",
                                "class": "",
                                "id": ""
                            },
                            "default_value": "",
                            "tabs": "all",
                            "toolbar": "basic",
                            "media_upload": 0,
                            "delay": 0
                        }
                    ],
                    "min": "",
                    "max": ""
                },
                "layout_5d3c6553dde76": {
                    "key": "layout_5d3c6553dde76",
                    "name": "footer_links",
                    "label": "Links",
                    "display": "row",
                    "sub_fields": [
                        {
                            "key": "field_5d3c6c8af3131",
                            "label": "Titel",
                            "name": "footer_links_title",
                            "type": "text",
                            "instructions": "",
                            "required": 0,
                            "conditional_logic": 0,
                            "wrapper": {
                                "width": "",
                                "class": "",
                                "id": ""
                            },
                            "default_value": "Links",
                            "placeholder": "",
                            "prepend": "",
                            "append": "",
                            "maxlength": ""
                        },
                        {
                            "key": "field_5d3c656ddde77",
                            "label": "Links",
                            "name": "footer_links_repeater",
                            "type": "repeater",
                            "instructions": "",
                            "required": 0,
                            "conditional_logic": 0,
                            "wrapper": {
                                "width": "",
                                "class": "",
                                "id": ""
                            },
                            "collapsed": "",
                            "min": 0,
                            "max": 5,
                            "layout": "table",
                            "button_label": "+ Nieuwe link toevoegen",
                            "sub_fields": [
                                {
                                    "key": "field_5d3c65e3dde78",
                                    "label": "Kies link",
                                    "name": "footer_links_url",
                                    "type": "link",
                                    "instructions": "",
                                    "required": 1,
                                    "conditional_logic": 0,
                                    "wrapper": {
                                        "width": "50",
                                        "class": "",
                                        "id": ""
                                    },
                                    "return_format": "array"
                                }
                            ]
                        }
                    ],
                    "min": "",
                    "max": ""
                },
                "layout_5d1640c694296": {
                    "key": "layout_5d1640c694296",
                    "name": "footer_logo",
                    "label": "Logo",
                    "display": "row",
                    "sub_fields": [
                        {
                            "key": "field_5d163f24e6124",
                            "label": "Logo",
                            "name": "enable_footer_sitelogo",
                            "type": "true_false",
                            "instructions": "Site logo. Schakel uit voor custom logo.",
                            "required": 0,
                            "conditional_logic": 0,
                            "wrapper": {
                                "width": "50",
                                "class": "",
                                "id": ""
                            },
                            "message": "",
                            "default_value": 1,
                            "ui": 1,
                            "ui_on_text": "On",
                            "ui_off_text": "Off"
                        },
                        {
                            "key": "field_5d1640ee94297",
                            "label": "Custom",
                            "name": "footer_logo_custom",
                            "type": "image",
                            "instructions": "",
                            "required": 0,
                            "conditional_logic": [
                                [
                                    {
                                        "field": "field_5d163f24e6124",
                                        "operator": "!=",
                                        "value": "1"
                                    }
                                ]
                            ],
                            "wrapper": {
                                "width": "50",
                                "class": "",
                                "id": ""
                            },
                            "return_format": "id",
                            "preview_size": "thumbnail",
                            "library": "all",
                            "min_width": "",
                            "min_height": "",
                            "min_size": "",
                            "max_width": 512,
                            "max_height": "",
                            "max_size": "",
                            "mime_types": "png, jpg, jpeg"
                        },
                        {
                            "key": "field_5d3c501bd6a1c",
                            "label": "Adres onder logo",
                            "name": "footer_logo_add_address",
                            "type": "true_false",
                            "instructions": "",
                            "required": 0,
                            "conditional_logic": 0,
                            "wrapper": {
                                "width": "",
                                "class": "",
                                "id": ""
                            },
                            "message": "",
                            "default_value": 0,
                            "ui": 1,
                            "ui_on_text": "Aan",
                            "ui_off_text": "Uit"
                        }
                    ],
                    "min": "",
                    "max": "1"
                },
                "layout_5d1642b58cf17": {
                    "key": "layout_5d1642b58cf17",
                    "name": "footer_address",
                    "label": "Adres",
                    "display": "row",
                    "sub_fields": [
                        {
                            "key": "field_5d3b189147dab",
                            "label": "Titel",
                            "name": "location_title",
                            "type": "text",
                            "instructions": "",
                            "required": 0,
                            "conditional_logic": 0,
                            "wrapper": {
                                "width": "",
                                "class": "",
                                "id": ""
                            },
                            "default_value": "Adres",
                            "placeholder": "",
                            "prepend": "",
                            "append": "",
                            "maxlength": ""
                        },
                        {
                            "key": "field_5d1642c18cf18",
                            "label": "Toon adres data",
                            "name": "",
                            "type": "message",
                            "instructions": "",
                            "required": 0,
                            "conditional_logic": 0,
                            "wrapper": {
                                "width": "",
                                "class": "",
                                "id": ""
                            },
                            "message": "Toon primair adres zoals toegevoegd in Humanify -> Contact defaults,",
                            "new_lines": "wpautop",
                            "esc_html": 0
                        }
                    ],
                    "min": "",
                    "max": "1"
                },
                "layout_5d17722670153": {
                    "key": "layout_5d17722670153",
                    "name": "footer_contact",
                    "label": "Contact links",
                    "display": "row",
                    "sub_fields": [
                        {
                            "key": "field_5d3b18ad47dac",
                            "label": "Titel",
                            "name": "contact_title",
                            "type": "text",
                            "instructions": "",
                            "required": 0,
                            "conditional_logic": 0,
                            "wrapper": {
                                "width": "",
                                "class": "",
                                "id": ""
                            },
                            "default_value": "",
                            "placeholder": "",
                            "prepend": "",
                            "append": "",
                            "maxlength": ""
                        },
                        {
                            "key": "field_5d17729f70155",
                            "label": "Contact info",
                            "name": "",
                            "type": "message",
                            "instructions": "",
                            "required": 0,
                            "conditional_logic": 0,
                            "wrapper": {
                                "width": "",
                                "class": "",
                                "id": ""
                            },
                            "message": "Haalt contact data op van: Humanify -> Setup - Contact.",
                            "new_lines": "wpautop",
                            "esc_html": 0
                        },
                        {
                            "key": "field_5d17724370154",
                            "label": "Contact links",
                            "name": "footer_contact_check",
                            "type": "checkbox",
                            "instructions": "",
                            "required": 0,
                            "conditional_logic": 0,
                            "wrapper": {
                                "width": "",
                                "class": "",
                                "id": ""
                            },
                            "choices": {
                                "phone": "Telefoon",
                                "email": "Email",
                                "linkedin": "Linkedin",
                                "facebook": "Facebook"
                            },
                            "allow_custom": 0,
                            "default_value": [],
                            "layout": "horizontal",
                            "toggle": 1,
                            "return_format": "value",
                            "save_custom": 0
                        }
                    ],
                    "min": "",
                    "max": ""
                }
            },
            "button_label": "+ Footer kolom toevoegen",
            "min": "",
            "max": 4
        },
        {
            "key": "field_60324c615559e",
            "label": "Footer bottom bar",
            "name": "",
            "type": "tab",
            "instructions": "",
            "required": 0,
            "conditional_logic": 0,
            "wrapper": {
                "width": "",
                "class": "",
                "id": ""
            },
            "placement": "left",
            "endpoint": 0
        },
        {
            "key": "field_5dbd5b682e814",
            "label": "Activeer bottom bar",
            "name": "enable_footer_bot",
            "type": "true_false",
            "instructions": "",
            "required": 0,
            "conditional_logic": 0,
            "wrapper": {
                "width": "",
                "class": "",
                "id": ""
            },
            "message": "",
            "default_value": 0,
            "ui": 1,
            "ui_on_text": "Aan",
            "ui_off_text": "Uit"
        },
        {
            "key": "field_5dbd5b862e815",
            "label": "Selecteer inhoud",
            "name": "footer_bot_checks",
            "type": "checkbox",
            "instructions": "",
            "required": 0,
            "conditional_logic": [
                [
                    {
                        "field": "field_5dbd5b682e814",
                        "operator": "==",
                        "value": "1"
                    }
                ]
            ],
            "wrapper": {
                "width": "50",
                "class": "",
                "id": ""
            },
            "choices": {
                "copy": "Copyright",
                "privacy": "Privacy",
                "disclaimer": "Disclaimer"
            },
            "allow_custom": 0,
            "default_value": [],
            "layout": "horizontal",
            "toggle": 1,
            "return_format": "value",
            "save_custom": 0
        }
    ],
    "location": [
        [
            {
                "param": "options_page",
                "operator": "==",
                "value": "acf-options-setup-footer"
            }
        ]
    ],
    "menu_order": 50,
    "position": "normal",
    "style": "default",
    "label_placement": "top",
    "instruction_placement": "label",
    "hide_on_screen": "",
    "active": true,
    "description": "",
    "modified": 1614086837
}