{
    "key": "group_602fd01a3cae3",
    "title": "Partial > Option - post terms",
    "fields": [
        {
            "key": "field_602fd0539c77e",
            "label": "",
            "name": "select_meta_terms",
            "type": "select",
            "instructions": "",
            "required": 0,
            "conditional_logic": 0,
            "wrapper": {
                "width": "",
                "class": "",
                "id": ""
            },
            "choices": {
                "category": "category",
                "post_tag": "post_tag",
                "cat_focus": "cat_focus",
                "tag_types": "tag_types",
                "tag_onderwerp": "tag_onderwerp"
            },
            "default_value": [],
            "allow_null": 1,
            "multiple": 1,
            "ui": 1,
            "ajax": 0,
            "return_format": "value",
            "placeholder": ""
        }
    ],
    "location": [
        [
            {
                "param": "post_type",
                "operator": "==",
                "value": "post"
            }
        ]
    ],
    "menu_order": 30,
    "position": "normal",
    "style": "default",
    "label_placement": "top",
    "instruction_placement": "label",
    "hide_on_screen": "",
    "active": false,
    "description": "",
    "modified": 1618996049
}